formal/invaders_cover/engine_0/trace0.vcd
$var integer 32 t smt_step $end
$var event 1 ! smt_clock $end
$scope module invaders $end
$var wire 1 n0 direction $end
$var wire 5 n1 i_bullet_x $end
$var wire 4 n2 i_bullet_y $end
$var wire 1 n3 i_clk_25MHz $end
$var wire 1 n4 i_reset $end
$var wire 1 n5 o_hit $end
$var wire 20 n6 o_invaders_array $end
$var wire 4 n7 o_invaders_row $end
$scope module speed_timer1 $end
$var wire 32 n8 count $end
$var wire 1 n9 i_clk_25MHz $end
$var wire 1 n10 i_reset $end
$var wire 1 n11 o_q $end
$upscope $end
$var wire 1 n12 tick $end
$upscope $end
$enddefinitions $end
#0
1!
b00000000000000000000000000000000 t
b1 n3
b1 n9
b0 n0
b00011 n1
b0001 n2
b0 n4
b0 n5
b00000000000111111111 n6
b0000 n7
b00000000000000000000000000000000 n8
b0 n10
b0 n11
b0 n12
#5
b0 n3
b0 n9
#10
1!
b00000000000000000000000000000001 t
b1 n3
b1 n9
b0 n0
b00101 n1
b0001 n2
b0 n4
b1 n5
b00000000000111110111 n6
b0000 n7
b00000000000000000000000000000001 n8
b0 n10
b0 n11
b0 n12
#15
b0 n3
b0 n9
#20
1!
b00000000000000000000000000000010 t
b1 n3
b1 n9
b0 n0
b00010 n1
b0001 n2
b0 n4
b1 n5
b00000000000111010111 n6
b0000 n7
b00000000000000000000000000000010 n8
b0 n10
b0 n11
b0 n12
#25
b0 n3
b0 n9
#30
1!
b00000000000000000000000000000011 t
b1 n3
b1 n9
b0 n0
b00001 n1
b0001 n2
b1 n4
b1 n5
b00000000000111010011 n6
b0000 n7
b00000000000000000000000000000011 n8
b1 n10
b0 n11
b0 n12
#35
b0 n3
b0 n9
#40
1!
b00000000000000000000000000000100 t
b1 n3
b1 n9
b0 n0
b00110 n1
b0001 n2
b0 n4
b0 n5
b00000000000111111111 n6
b0000 n7
b00000000000000000000000000000000 n8
b0 n10
b0 n11
b0 n12
#45
b0 n3
b0 n9
#50
1!
b00000000000000000000000000000101 t
b1 n3
b1 n9
b0 n0
b10000 n1
b0001 n2
b0 n4
b1 n5
b00000000000110111111 n6
b0000 n7
b00000000000000000000000000000001 n8
b0 n10
b0 n11
b0 n12
#55
b0 n3
b0 n9
#60
1!
b00000000000000000000000000000110 t
b1 n3
b1 n9
b0 n0
b00001 n1
b0101 n2
b0 n4
b0 n5
b00000000000110111111 n6
b0000 n7
b00000000000000000000000000000010 n8
b0 n10
b0 n11
b0 n12
#65
b0 n3
b0 n9
#70
1!
b00000000000000000000000000000111 t
b1 n3
b1 n9
b0 n0
b00010 n1
b0001 n2
b0 n4
b0 n5
b00000000000110111111 n6
b0000 n7
b00000000000000000000000000000011 n8
b0 n10
b0 n11
b0 n12
#75
b0 n3
b0 n9
#80
1!
b00000000000000000000000000001000 t
b1 n3
b1 n9
b0 n0
b01000 n1
b0001 n2
b0 n4
b1 n5
b00000000000110111011 n6
b0000 n7
b00000000000000000000000000000100 n8
b0 n10
b0 n11
b0 n12
#85
b0 n3
b0 n9
#90
1!
b00000000000000000000000000001001 t
b1 n3
b1 n9
b0 n0
b00000 n1
b0001 n2
b0 n4
b1 n5
b00000000000010111011 n6
b0000 n7
b00000000000000000000000000000101 n8
b0 n10
b0 n11
b0 n12
#95
b0 n3
b0 n9
#100
1!
b00000000000000000000000000001010 t
b1 n3
b1 n9
b0 n0
b00000 n1
b0000 n2
b0 n4
b1 n5
b00000000000010111010 n6
b0000 n7
b00000000000000000000000000000110 n8
b0 n10
b0 n11
b0 n12
#105
b0 n3
b0 n9
#110
1!
b00000000000000000000000000001011 t
b1 n3
b1 n9
b0 n0
b00111 n1
b0001 n2
b0 n4
b0 n5
b00000000000010111010 n6
b0000 n7
b00000000000000000000000000000111 n8
b0 n10
b0 n11
b0 n12
#115
b0 n3
b0 n9
#120
1!
b00000000000000000000000000001100 t
b1 n3
b1 n9
b0 n0
b00001 n1
b0001 n2
b1 n4
b1 n5
b00000000000000111010 n6
b0000 n7
b00000000000000000000000000001000 n8
b1 n10
b0 n11
b0 n12
#125
b0 n3
b0 n9
#130
1!
b00000000000000000000000000001101 t
b1 n3
b1 n9
b0 n0
b00011 n1
b0001 n2
b1 n4
b0 n5
b00000000000111111111 n6
b0000 n7
b00000000000000000000000000000000 n8
b1 n10
b0 n11
b0 n12
#135
b0 n3
b0 n9
#140
1!
b00000000000000000000000000001110 t
b1 n3
b1 n9
b0 n0
b00000 n1
b0001 n2
b1 n4
b0 n5
b00000000000111111111 n6
b0000 n7
b00000000000000000000000000000000 n8
b1 n10
b0 n11
b0 n12
#145
b0 n3
b0 n9
#150
1!
b00000000000000000000000000001111 t
b1 n3
b1 n9
b0 n0
b00110 n1
b0001 n2
b1 n4
b0 n5
b00000000000111111111 n6
b0000 n7
b00000000000000000000000000000000 n8
b1 n10
b0 n11
b0 n12
#155
b0 n3
b0 n9
#160
1!
b00000000000000000000000000010000 t
b1 n3
b1 n9
b0 n0
b01001 n1
b0000 n2
b1 n4
b0 n5
b00000000000111111111 n6
b0000 n7
b00000000000000000000000000000000 n8
b1 n10
b0 n11
b0 n12
#165
b0 n3
b0 n9
#170
1!
b00000000000000000000000000010001 t
b1 n3
b1 n9
b0 n0
b01000 n1
b0011 n2
b1 n4
b0 n5
b00000000000111111111 n6
b0000 n7
b00000000000000000000000000000000 n8
b1 n10
b0 n11
b0 n12
#175
b0 n3
b0 n9
#180
1!
b00000000000000000000000000010010 t
b1 n3
b1 n9
b0 n0
b00000 n1
b1001 n2
b1 n4
b0 n5
b00000000000111111111 n6
b0000 n7
b00000000000000000000000000000000 n8
b1 n10
b0 n11
b0 n12
#185
b0 n3
b0 n9
#190
1!
b00000000000000000000000000010011 t
b1 n3
b1 n9
b0 n0
b00000 n1
b0001 n2
b1 n4
b0 n5
b00000000000111111111 n6
b0000 n7
b00000000000000000000000000000000 n8
b1 n10
b0 n11
b0 n12
#195
b0 n3
b0 n9
#200
1!
b00000000000000000000000000010100 t
b1 n3
b1 n9
b0 n0
b00010 n1
b0001 n2
b1 n4
b0 n5
b00000000000111111111 n6
b0000 n7
b00000000000000000000000000000000 n8
b1 n10
b0 n11
b0 n12
#205
b0 n3
b0 n9
#210
1!
b00000000000000000000000000010101 t
b1 n3
b1 n9
b0 n0
b01000 n1
b0001 n2
b0 n4
b0 n5
b00000000000111111111 n6
b0000 n7
b00000000000000000000000000000000 n8
b0 n10
b0 n11
b0 n12
#215
b0 n3
b0 n9
#220
1!
b00000000000000000000000000010110 t
b1 n3
b1 n9
b0 n0
b00101 n1
b0001 n2
b0 n4
b1 n5
b00000000000011111111 n6
b0000 n7
b00000000000000000000000000000001 n8
b0 n10
b0 n11
b0 n12
#225
b0 n3
b0 n9
#230
1!
b00000000000000000000000000010111 t
b1 n3
b1 n9
b0 n0
b00100 n1
b0001 n2
b0 n4
b1 n5
b00000000000011011111 n6
b0000 n7
b00000000000000000000000000000010 n8
b0 n10
b0 n11
b0 n12
#235
b0 n3
b0 n9
#240
1!
b00000000000000000000000000011000 t
b1 n3
b1 n9
b0 n0
b00001 n1
b0001 n2
b0 n4
b1 n5
b00000000000011001111 n6
b0000 n7
b00000000000000000000000000000011 n8
b0 n10
b0 n11
b0 n12
#245
b0 n3
b0 n9
#250
1!
b00000000000000000000000000011001 t
b1 n3
b1 n9
b0 n0
b00010 n1
b0001 n2
b1 n4
b1 n5
b00000000000011001101 n6
b0000 n7
b00000000000000000000000000000100 n8
b1 n10
b0 n11
b0 n12
#255
b0 n3
b0 n9
#260
1!
b00000000000000000000000000011010 t
b1 n3
b1 n9
b0 n0
b00000 n1
b0001 n2
b1 n4
b0 n5
b00000000000111111111 n6
b0000 n7
b00000000000000000000000000000000 n8
b1 n10
b0 n11
b0 n12
#265
b0 n3
b0 n9
#270
1!
b00000000000000000000000000011011 t
b1 n3
b1 n9
b0 n0
b00100 n1
b0001 n2
b1 n4
b0 n5
b00000000000111111111 n6
b0000 n7
b00000000000000000000000000000000 n8
b1 n10
b0 n11
b0 n12
#275
b0 n3
b0 n9
#280
1!
b00000000000000000000000000011100 t
b1 n3
b1 n9
b0 n0
b00001 n1
b0001 n2
b1 n4
b0 n5
b00000000000111111111 n6
b0000 n7
b00000000000000000000000000000000 n8
b1 n10
b0 n11
b0 n12
#285
b0 n3
b0 n9
#290
1!
b00000000000000000000000000011101 t
b1 n3
b1 n9
b0 n0
b00001 n1
b0001 n2
b1 n4
b0 n5
b00000000000111111111 n6
b0000 n7
b00000000000000000000000000000000 n8
b1 n10
b0 n11
b0 n12
#295
b0 n3
b0 n9
#300
1!
b00000000000000000000000000011110 t
b1 n3
b1 n9
b0 n0
b00110 n1
b0001 n2
b1 n4
b0 n5
b00000000000111111111 n6
b0000 n7
b00000000000000000000000000000000 n8
b1 n10
b0 n11
b0 n12
#305
b0 n3
b0 n9
#310
1!
b00000000000000000000000000011111 t
b1 n3
b1 n9
b0 n0
b00001 n1
b0001 n2
b1 n4
b0 n5
b00000000000111111111 n6
b0000 n7
b00000000000000000000000000000000 n8
b1 n10
b0 n11
b0 n12
#315
b0 n3
b0 n9
#320
1!
b00000000000000000000000000100000 t
b1 n3
b1 n9
b0 n0
b00000 n1
b0001 n2
b1 n4
b0 n5
b00000000000111111111 n6
b0000 n7
b00000000000000000000000000000000 n8
b1 n10
b0 n11
b0 n12
#325
b0 n3
b0 n9
#330
1!
b00000000000000000000000000100001 t
b1 n3
b1 n9
b0 n0
b00000 n1
b0001 n2
b0 n4
b0 n5
b00000000000111111111 n6
b0000 n7
b00000000000000000000000000000000 n8
b0 n10
b0 n11
b0 n12
#335
b0 n3
b0 n9
#340
1!
b00000000000000000000000000100010 t
b1 n3
b1 n9
b0 n0
b00100 n1
b0001 n2
b0 n4
b1 n5
b00000000000111111110 n6
b0000 n7
b00000000000000000000000000000001 n8
b0 n10
b0 n11
b0 n12
#345
b0 n3
b0 n9
#350
1!
b00000000000000000000000000100011 t
b1 n3
b1 n9
b0 n0
b00010 n1
b0001 n2
b0 n4
b1 n5
b00000000000111101110 n6
b0000 n7
b00000000000000000000000000000010 n8
b0 n10
b0 n11
b0 n12
#355
b0 n3
b0 n9
#360
1!
b00000000000000000000000000100100 t
b1 n3
b1 n9
b0 n0
b01000 n1
b0001 n2
b0 n4
b1 n5
b00000000000111101010 n6
b0000 n7
b00000000000000000000000000000011 n8
b0 n10
b0 n11
b0 n12
#365
b0 n3
b0 n9
#370
1!
b00000000000000000000000000100101 t
b1 n3
b1 n9
b0 n0
b00101 n1
b0001 n2
b0 n4
b1 n5
b00000000000011101010 n6
b0000 n7
b00000000000000000000000000000100 n8
b0 n10
b0 n11
b0 n12
#375
b0 n3
b0 n9
#380
1!
b00000000000000000000000000100110 t
b1 n3
b1 n9
b0 n0
b01000 n1
b0000 n2
b0 n4
b1 n5
b00000000000011001010 n6
b0000 n7
b00000000000000000000000000000101 n8
b0 n10
b0 n11
b0 n12
#385
b0 n3
b0 n9
#390
1!
b00000000000000000000000000100111 t
b1 n3
b1 n9
b0 n0
b00001 n1
b0001 n2
b0 n4
b0 n5
b00000000000011001010 n6
b0000 n7
b00000000000000000000000000000110 n8
b0 n10
b0 n11
b0 n12
#395
b0 n3
b0 n9
#400
1!
b00000000000000000000000000101000 t
b1 n3
b1 n9
b0 n0
b00010 n1
b0000 n2
b0 n4
b1 n5
b00000000000011001000 n6
b0000 n7
b00000000000000000000000000000111 n8
b0 n10
b0 n11
b0 n12
#405
b0 n3
b0 n9
#410
1!
b00000000000000000000000000101001 t
b1 n3
b1 n9
b0 n0
b00110 n1
b0001 n2
b1 n4
b0 n5
b00000000000011001000 n6
b0000 n7
b00000000000000000000000000001000 n8
b1 n10
b0 n11
b0 n12
#415
b0 n3
b0 n9
#420
1!
b00000000000000000000000000101010 t
b1 n3
b1 n9
b0 n0
b00101 n1
b0001 n2
b1 n4
b0 n5
b00000000000111111111 n6
b0000 n7
b00000000000000000000000000000000 n8
b1 n10
b0 n11
b0 n12
#425
b0 n3
b0 n9
#430
1!
b00000000000000000000000000101011 t
b1 n3
b1 n9
b0 n0
b01000 n1
b0001 n2
b1 n4
b0 n5
b00000000000111111111 n6
b0000 n7
b00000000000000000000000000000000 n8
b1 n10
b0 n11
b0 n12
#435
b0 n3
b0 n9
#440
1!
b00000000000000000000000000101100 t
b1 n3
b1 n9
b0 n0
b00100 n1
b0001 n2
b1 n4
b0 n5
b00000000000111111111 n6
b0000 n7
b00000000000000000000000000000000 n8
b1 n10
b0 n11
b0 n12
#445
b0 n3
b0 n9
#450
1!
b00000000000000000000000000101101 t
b1 n3
b1 n9
b0 n0
b00000 n1
b0001 n2
b1 n4
b0 n5
b00000000000111111111 n6
b0000 n7
b00000000000000000000000000000000 n8
b1 n10
b0 n11
b0 n12
#455
b0 n3
b0 n9
#460
1!
b00000000000000000000000000101110 t
b1 n3
b1 n9
b0 n0
b00000 n1
b0001 n2
b0 n4
b0 n5
b00000000000111111111 n6
b0000 n7
b00000000000000000000000000000000 n8
b0 n10
b0 n11
b0 n12
#465
b0 n3
b0 n9
#470
1!
b00000000000000000000000000101111 t
b1 n3
b1 n9
b0 n0
b00100 n1
b0001 n2
b1 n4
b1 n5
b00000000000111111110 n6
b0000 n7
b00000000000000000000000000000001 n8
b1 n10
b0 n11
b0 n12
#475
b0 n3
b0 n9
#480
1!
b00000000000000000000000000110000 t
b1 n3
b1 n9
b0 n0
b00100 n1
b0001 n2
b1 n4
b0 n5
b00000000000111111111 n6
b0000 n7
b00000000000000000000000000000000 n8
b1 n10
b0 n11
b0 n12
#485
b0 n3
b0 n9
#490
1!
b00000000000000000000000000110001 t
b1 n3
b1 n9
b0 n0
b00101 n1
b0001 n2
b0 n4
b0 n5
b00000000000111111111 n6
b0000 n7
b00000000000000000000000000000000 n8
b0 n10
b0 n11
b0 n12
#495
b0 n3
b0 n9
#500
1!
b00000000000000000000000000110010 t
b1 n3
b1 n9
b0 n0
b00001 n1
b0001 n2
b0 n4
b1 n5
b00000000000111011111 n6
b0000 n7
b00000000000000000000000000000001 n8
b0 n10
b0 n11
b0 n12
#505
b0 n3
b0 n9
#510
1!
b00000000000000000000000000110011 t
b1 n3
b1 n9
b0 n0
b00111 n1
b0001 n2
b0 n4
b1 n5
b00000000000111011101 n6
b0000 n7
b00000000000000000000000000000010 n8
b0 n10
b0 n11
b0 n12
#515
b0 n3
b0 n9
#520
1!
b00000000000000000000000000110100 t
b1 n3
b1 n9
b0 n0
b00011 n1
b0001 n2
b0 n4
b1 n5
b00000000000101011101 n6
b0000 n7
b00000000000000000000000000000011 n8
b0 n10
b0 n11
b0 n12
#525
b0 n3
b0 n9
#530
1!
b00000000000000000000000000110101 t
b1 n3
b1 n9
b0 n0
b00000 n1
b0001 n2
b0 n4
b1 n5
b00000000000101010101 n6
b0000 n7
b00000000000000000000000000000100 n8
b0 n10
b0 n11
b0 n12
#535
b0 n3
b0 n9
#540
1!
b00000000000000000000000000110110 t
b1 n3
b1 n9
b0 n0
b00101 n1
b0001 n2
b1 n4
b1 n5
b00000000000101010100 n6
b0000 n7
b00000000000000000000000000000101 n8
b1 n10
b0 n11
b0 n12
#545
b0 n3
b0 n9
#550
1!
b00000000000000000000000000110111 t
b1 n3
b1 n9
b0 n0
b00010 n1
b0001 n2
b0 n4
b0 n5
b00000000000111111111 n6
b0000 n7
b00000000000000000000000000000000 n8
b0 n10
b0 n11
b0 n12
#555
b0 n3
b0 n9
#560
1!
b00000000000000000000000000111000 t
b1 n3
b1 n9
b0 n0
b01111 n1
b0001 n2
b1 n4
b1 n5
b00000000000111111011 n6
b0000 n7
b00000000000000000000000000000001 n8
b1 n10
b0 n11
b0 n12
#565
b0 n3
b0 n9
#570
1!
b00000000000000000000000000111001 t
b1 n3
b1 n9
b0 n0
b00000 n1
b0001 n2
b1 n4
b0 n5
b00000000000111111111 n6
b0000 n7
b00000000000000000000000000000000 n8
b1 n10
b0 n11
b0 n12
#575
b0 n3
b0 n9
#580
1!
b00000000000000000000000000111010 t
b1 n3
b1 n9
b0 n0
b00100 n1
b0001 n2
b1 n4
b0 n5
b00000000000111111111 n6
b0000 n7
b00000000000000000000000000000000 n8
b1 n10
b0 n11
b0 n12
#585
b0 n3
b0 n9
#590
1!
b00000000000000000000000000111011 t
b1 n3
b1 n9
b0 n0
b01000 n1
b0001 n2
b0 n4
b0 n5
b00000000000111111111 n6
b0000 n7
b00000000000000000000000000000000 n8
b0 n10
b0 n11
b0 n12
#595
b0 n3
b0 n9
#600
1!
b00000000000000000000000000111100 t
b1 n3
b1 n9
b0 n0
b00111 n1
b0001 n2
b0 n4
b1 n5
b00000000000011111111 n6
b0000 n7
b00000000000000000000000000000001 n8
b0 n10
b0 n11
b0 n12
#605
b0 n3
b0 n9
#610
1!
b00000000000000000000000000111101 t
b1 n3
b1 n9
b0 n0
b00001 n1
b0001 n2
b0 n4
b1 n5
b00000000000001111111 n6
b0000 n7
b00000000000000000000000000000010 n8
b0 n10
b0 n11
b0 n12
#615
b0 n3
b0 n9
#620
1!
b00000000000000000000000000111110 t
b1 n3
b1 n9
b0 n0
b00011 n1
b0001 n2
b0 n4
b1 n5
b00000000000001111101 n6
b0000 n7
b00000000000000000000000000000011 n8
b0 n10
b0 n11
b0 n12
#625
b0 n3
b0 n9
#630
1!
b00000000000000000000000000111111 t
b1 n3
b1 n9
b0 n0
b00101 n1
b0001 n2
b1 n4
b1 n5
b00000000000001110101 n6
b0000 n7
b00000000000000000000000000000100 n8
b1 n10
b0 n11
b0 n12
#635
b0 n3
b0 n9
#640
1!
b00000000000000000000000001000000 t
b1 n3
b1 n9
b0 n0
b00101 n1
b0001 n2
b0 n4
b0 n5
b00000000000111111111 n6
b0000 n7
b00000000000000000000000000000000 n8
b0 n10
b0 n11
b0 n12
#645
b0 n3
b0 n9
#650
1!
b00000000000000000000000001000001 t
b1 n3
b1 n9
b0 n0
b00000 n1
b0001 n2
b0 n4
b1 n5
b00000000000111011111 n6
b0000 n7
b00000000000000000000000000000001 n8
b0 n10
b0 n11
b0 n12
#655
b0 n3
b0 n9
#660
1!
b00000000000000000000000001000010 t
b1 n3
b1 n9
b0 n0
b00001 n1
b0001 n2
b1 n4
b1 n5
b00000000000111011110 n6
b0000 n7
b00000000000000000000000000000010 n8
b1 n10
b0 n11
b0 n12
#665
b0 n3
b0 n9
#670
1!
b00000000000000000000000001000011 t
b1 n3
b1 n9
b0 n0
b00010 n1
b0001 n2
b0 n4
b0 n5
b00000000000111111111 n6
b0000 n7
b00000000000000000000000000000000 n8
b0 n10
b0 n11
b0 n12
#675
b0 n3
b0 n9
#680
1!
b00000000000000000000000001000100 t
b1 n3
b1 n9
b0 n0
b00001 n1
b0001 n2
b0 n4
b1 n5
b00000000000111111011 n6
b0000 n7
b00000000000000000000000000000001 n8
b0 n10
b0 n11
b0 n12
#685
b0 n3
b0 n9
#690
1!
b00000000000000000000000001000101 t
b1 n3
b1 n9
b0 n0
b00100 n1
b0001 n2
b0 n4
b1 n5
b00000000000111111001 n6
b0000 n7
b00000000000000000000000000000010 n8
b0 n10
b0 n11
b0 n12
#695
b0 n3
b0 n9
#700
1!
b00000000000000000000000001000110 t
b1 n3
b1 n9
b0 n0
b00000 n1
b0001 n2
b0 n4
b1 n5
b00000000000111101001 n6
b0000 n7
b00000000000000000000000000000011 n8
b0 n10
b0 n11
b0 n12
#705
b0 n3
b0 n9
#710
1!
b00000000000000000000000001000111 t
b1 n3
b1 n9
b0 n0
b00011 n1
b0001 n2
b0 n4
b1 n5
b00000000000111101000 n6
b0000 n7
b00000000000000000000000000000100 n8
b0 n10
b0 n11
b0 n12
#715
b0 n3
b0 n9
#720
1!
b00000000000000000000000001001000 t
b1 n3
b1 n9
b0 n0
b00000 n1
b0000 n2
b1 n4
b1 n5
b00000000000111100000 n6
b0000 n7
b00000000000000000000000000000101 n8
b1 n10
b0 n11
b0 n12
#725
b0 n3
b0 n9
#730
1!
b00000000000000000000000001001001 t
b1 n3
b1 n9
b0 n0
b00100 n1
b0001 n2
b0 n4
b0 n5
b00000000000111111111 n6
b0000 n7
b00000000000000000000000000000000 n8
b0 n10
b0 n11
b0 n12
#735
b0 n3
b0 n9
#740
1!
b00000000000000000000000001001010 t
b1 n3
b1 n9
b0 n0
b01000 n1
b0001 n2
b0 n4
b1 n5
b00000000000111101111 n6
b0000 n7
b00000000000000000000000000000001 n8
b0 n10
b0 n11
b0 n12
#745
b0 n3
b0 n9
#750
1!
b00000000000000000000000001001011 t
b1 n3
b1 n9
b0 n0
b00000 n1
b0001 n2
b0 n4
b1 n5
b00000000000011101111 n6
b0000 n7
b00000000000000000000000000000010 n8
b0 n10
b0 n11
b0 n12
#755
b0 n3
b0 n9
#760
1!
b00000000000000000000000001001100 t
b1 n3
b1 n9
b0 n0
b00000 n1
b0001 n2
b1 n4
b1 n5
b00000000000011101110 n6
b0000 n7
b00000000000000000000000000000011 n8
b1 n10
b0 n11
b0 n12
#765
b0 n3
b0 n9
#770
1!
b00000000000000000000000001001101 t
b1 n3
b1 n9
b0 n0
b00000 n1
b0001 n2
b0 n4
b0 n5
b00000000000111111111 n6
b0000 n7
b00000000000000000000000000000000 n8
b0 n10
b0 n11
b0 n12
#775
b0 n3
b0 n9
#780
1!
b00000000000000000000000001001110 t
b1 n3
b1 n9
b0 n0
b00110 n1
b0001 n2
b0 n4
b1 n5
b00000000000111111110 n6
b0000 n7
b00000000000000000000000000000001 n8
b0 n10
b0 n11
b0 n12
#785
b0 n3
b0 n9
#790
1!
b00000000000000000000000001001111 t
b1 n3
b1 n9
b0 n0
b00100 n1
b0001 n2
b0 n4
b1 n5
b00000000000110111110 n6
b0000 n7
b00000000000000000000000000000010 n8
b0 n10
b0 n11
b0 n12
#795
b0 n3
b0 n9
#800
1!
b00000000000000000000000001010000 t
b1 n3
b1 n9
b0 n0
b00010 n1
b0001 n2
b0 n4
b1 n5
b00000000000110101110 n6
b0000 n7
b00000000000000000000000000000011 n8
b0 n10
b0 n11
b0 n12
#805
b0 n3
b0 n9
#810
1!
b00000000000000000000000001010001 t
b1 n3
b1 n9
b0 n0
b00000 n1
b0001 n2
b0 n4
b1 n5
b00000000000110101010 n6
b0000 n7
b00000000000000000000000000000100 n8
b0 n10
b0 n11
b0 n12
#815
b0 n3
b0 n9
#820
1!
b00000000000000000000000001010010 t
b1 n3
b1 n9
b0 n0
b01000 n1
b0001 n2
b1 n4
b0 n5
b00000000000110101010 n6
b0000 n7
b00000000000000000000000000000101 n8
b1 n10
b0 n11
b0 n12
#825
b0 n3
b0 n9
#830
1!
b00000000000000000000000001010011 t
b1 n3
b1 n9
b0 n0
b00011 n1
b0001 n2
b0 n4
b0 n5
b00000000000111111111 n6
b0000 n7
b00000000000000000000000000000000 n8
b0 n10
b0 n11
b0 n12
#835
b0 n3
b0 n9
#840
1!
b00000000000000000000000001010100 t
b1 n3
b1 n9
b0 n0
b00000 n1
b0000 n2
b0 n4
b1 n5
b00000000000111110111 n6
b0000 n7
b00000000000000000000000000000001 n8
b0 n10
b0 n11
b0 n12
#845
b0 n3
b0 n9
#850
1!
b00000000000000000000000001010101 t
b1 n3
b1 n9
b0 n0
b00000 n1
b0001 n2
b1 n4
b0 n5
b00000000000111110111 n6
b0000 n7
b00000000000000000000000000000010 n8
b1 n10
b0 n11
b0 n12
#855
b0 n3
b0 n9
#860
1!
b00000000000000000000000001010110 t
b1 n3
b1 n9
b0 n0
b00000 n1
b0001 n2
b1 n4
b0 n5
b00000000000111111111 n6
b0000 n7
b00000000000000000000000000000000 n8
b1 n10
b0 n11
b0 n12
#865
b0 n3
b0 n9
#870
1!
b00000000000000000000000001010111 t
b1 n3
b1 n9
b0 n0
b00000 n1
b0001 n2
b0 n4
b0 n5
b00000000000111111111 n6
b0000 n7
b00000000000000000000000000000000 n8
b0 n10
b0 n11
b0 n12
#875
b0 n3
b0 n9
#880
1!
b00000000000000000000000001011000 t
b1 n3
b1 n9
b0 n0
b01110 n1
b0000 n2
b1 n4
b1 n5
b00000000000111111110 n6
b0000 n7
b00000000000000000000000000000001 n8
b1 n10
b0 n11
b0 n12
#885
b0 n3
b0 n9
#890
1!
b00000000000000000000000001011001 t
b1 n3
b1 n9
b0 n0
b00111 n1
b0001 n2
b1 n4
b0 n5
b00000000000111111111 n6
b0000 n7
b00000000000000000000000000000000 n8
b1 n10
b0 n11
b0 n12
#895
b0 n3
b0 n9
#900
1!
b00000000000000000000000001011010 t
b1 n3
b1 n9
b0 n0
b00101 n1
b0001 n2
b1 n4
b0 n5
b00000000000111111111 n6
b0000 n7
b00000000000000000000000000000000 n8
b1 n10
b0 n11
b0 n12
#905
b0 n3
b0 n9
#910
1!
b00000000000000000000000001011011 t
b1 n3
b1 n9
b0 n0
b00100 n1
b0001 n2
b1 n4
b0 n5
b00000000000111111111 n6
b0000 n7
b00000000000000000000000000000000 n8
b1 n10
b0 n11
b0 n12
#915
b0 n3
b0 n9
#920
1!
b00000000000000000000000001011100 t
b1 n3
b1 n9
b0 n0
b00101 n1
b0001 n2
b0 n4
b0 n5
b00000000000111111111 n6
b0000 n7
b00000000000000000000000000000000 n8
b0 n10
b0 n11
b0 n12
#925
b0 n3
b0 n9
#930
1!
b00000000000000000000000001011101 t
b1 n3
b1 n9
b0 n0
b00100 n1
b0001 n2
b0 n4
b1 n5
b00000000000111011111 n6
b0000 n7
b00000000000000000000000000000001 n8
b0 n10
b0 n11
b0 n12
#935
b0 n3
b0 n9
#940
1!
b00000000000000000000000001011110 t
b1 n3
b1 n9
b0 n0
b00001 n1
b0001 n2
b1 n4
b1 n5
b00000000000111001111 n6
b0000 n7
b00000000000000000000000000000010 n8
b1 n10
b0 n11
b0 n12
#945
b0 n3
b0 n9
#950
1!
b00000000000000000000000001011111 t
b1 n3
b1 n9
b0 n0
b00000 n1
b0001 n2
b0 n4
b0 n5
b00000000000111111111 n6
b0000 n7
b00000000000000000000000000000000 n8
b0 n10
b0 n11
b0 n12
#955
b0 n3
b0 n9
#960
1!
b00000000000000000000000001100000 t
b1 n3
b1 n9
b0 n0
b00101 n1
b0001 n2
b1 n4
b1 n5
b00000000000111111110 n6
b0000 n7
b00000000000000000000000000000001 n8
b1 n10
b0 n11
b0 n12
#965
b0 n3
b0 n9
#970
1!
b00000000000000000000000001100001 t
b1 n3
b1 n9
b0 n0
b01000 n1
b0001 n2
b0 n4
b0 n5
b00000000000111111111 n6
b0000 n7
b00000000000000000000000000000000 n8
b0 n10
b0 n11
b0 n12
#975
b0 n3
b0 n9
#980
1!
b00000000000000000000000001100010 t
b1 n3
b1 n9
b0 n0
b00000 n1
b0001 n2
b0 n4
b1 n5
b00000000000011111111 n6
b0000 n7
b00000000000000000000000000000001 n8
b0 n10
b0 n11
b0 n12
#985
b0 n3
b0 n9
#990
1!
b00000000000000000000000001100011 t
b1 n3
b1 n9
b0 n0
b00100 n1
b0001 n2
b0 n4
b1 n5
b00000000000011111110 n6
b0000 n7
b00000000000000000000000000000010 n8
b0 n10
b0 n11
b0 n12
#995
b0 n3
b0 n9
#1000
1!
b00000000000000000000000001100100 t
b1 n3
b1 n9
b0 n0
b00000 n1
b0001 n2
b0 n4
b1 n5
b00000000000011101110 n6
b0000 n7
b00000000000000000000000000000011 n8
b0 n10
b0 n11
b0 n12
#1005
b0 n3
b0 n9
#1010
1!
b00000000000000000000000001100101 t
b1 n3
b1 n9
