formal/ship_cover/engine_0/trace1.vcd
$var integer 32 t smt_step $end
$var event 1 ! smt_clock $end
$scope module ship $end
$var wire 1 n0 i_clk_25MHz $end
$var wire 1 n1 i_left_debounced $end
$var wire 1 n2 i_reset $end
$var wire 1 n3 i_right_debounced $end
$var wire 5 n4 next_x $end
$var wire 5 n5 o_ship_x $end
$upscope $end
$enddefinitions $end
#0
1!
b00000000000000000000000000000000 t
b1 n0
b0 n1
b1 n2
b0 n3
b10011 n4
b00101 n5
#5
b0 n0
#10
1!
b00000000000000000000000000000001 t
b1 n0
b0 n1
b1 n2
b0 n3
b10011 n4
b10011 n5
#15
b0 n0
#20
1!
b00000000000000000000000000000010 t
b1 n0
b0 n1
b0 n2
b0 n3
b00101 n4
b10011 n5
#25
b0 n0
#30
1!
b00000000000000000000000000000011 t
b1 n0
b0 n1
b0 n2
b0 n3
b00101 n4
b00101 n5
#35
b0 n0
#40
1!
b00000000000000000000000000000100 t
b1 n0
b1 n1
b1 n2
b0 n3
b10010 n4
b00101 n5
#45
b0 n0
#50
1!
b00000000000000000000000000000101 t
b1 n0
b0 n1
b0 n2
b0 n3
b00101 n4
b10010 n5
#55
b0 n0
#60
1!
b00000000000000000000000000000110 t
b1 n0
b0 n1
b0 n2
b0 n3
b00101 n4
b00101 n5
#65
b0 n0
#70
1!
b00000000000000000000000000000111 t
b1 n0
b1 n1
b1 n2
b0 n3
b10010 n4
b00101 n5
#75
b0 n0
#80
1!
b00000000000000000000000000001000 t
b1 n0
b1 n1
b0 n2
b0 n3
b00101 n4
b10010 n5
#85
b0 n0
#90
1!
b00000000000000000000000000001001 t
b1 n0
b1 n1
b0 n2
b0 n3
b00101 n4
b00101 n5
#95
b0 n0
#100
1!
b00000000000000000000000000001010 t
b1 n0
b1 n1
b1 n2
b0 n3
b10010 n4
b00101 n5
#105
b0 n0
#110
1!
b00000000000000000000000000001011 t
b1 n0
b1 n1
b1 n2
b0 n3
b10010 n4
b10010 n5
#115
b0 n0
#120
1!
b00000000000000000000000000001100 t
b1 n0
b0 n1
b0 n2
b0 n3
b00101 n4
b10010 n5
#125
b0 n0
#130
1!
b00000000000000000000000000001101 t
b1 n0
